// Jest Snapshot v1, https://goo.gl/fbAQLP

exports[`renders the Sidebar component 1`] = `
<div
  className="sidebar"
  data-testid="sidebar-test"
>
  <div
    className="bar bar1"
  />
  <div
    className="bar bar2"
  />
  <div
    className="bar bar3"
  />
</div>
`;
